%YAML 1.1
%TAG !u! tag:unity3d.com,2011:
--- !u!74 &7400000
AnimationClip:
  m_ObjectHideFlags: 0
  m_PrefabParentObject: {fileID: 0}
  m_PrefabInternal: {fileID: 0}
  m_Name: thunderBall_appear
  serializedVersion: 4
  m_AnimationType: 2
  m_Compressed: 0
  m_UseHighQualityCurve: 1
  m_RotationCurves: []
  m_CompressedRotationCurves: []
  m_PositionCurves: []
  m_ScaleCurves: []
  m_FloatCurves: []
  m_PPtrCurves:
  - curve:
    - time: 0
      value: {fileID: 21300000, guid: b22608c6a231b1049ad16d14c6e8e68b, type: 3}
    - time: .0833333358
      value: {fileID: 21300000, guid: acc5c958969fe0c4aa6bd69393a32180, type: 3}
    - time: .166666672
      value: {fileID: 21300000, guid: 85a1f38593b94b0409e57be1b3d3cce4, type: 3}
    - time: .25
      value: {fileID: 21300000, guid: c3b25b78dc9170949b6784391b6f50c8, type: 3}
    - time: .333333343
      value: {fileID: 21300000, guid: 4241368a8c7c6e442a5a4280444bcbc8, type: 3}
    - time: .416666657
      value: {fileID: 21300000, guid: 6c72b968f717fa447859dbc5726afebf, type: 3}
    - time: .5
      value: {fileID: 21300000, guid: abb93186fbf2ead408c7603b2d19021a, type: 3}
    attribute: m_Sprite
    path: 
    classID: 212
    script: {fileID: 0}
  m_SampleRate: 12
  m_WrapMode: 0
  m_Bounds:
    m_Center: {x: 0, y: 0, z: 0}
    m_Extent: {x: 0, y: 0, z: 0}
  m_ClipBindingConstant:
    genericBindings:
    - path: 0
      attribute: 0
      script: {fileID: 0}
      classID: 212
      customType: 23
      isPPtrCurve: 1
    pptrCurveMapping:
    - {fileID: 21300000, guid: b22608c6a231b1049ad16d14c6e8e68b, type: 3}
    - {fileID: 21300000, guid: acc5c958969fe0c4aa6bd69393a32180, type: 3}
    - {fileID: 21300000, guid: 85a1f38593b94b0409e57be1b3d3cce4, type: 3}
    - {fileID: 21300000, guid: c3b25b78dc9170949b6784391b6f50c8, type: 3}
    - {fileID: 21300000, guid: 4241368a8c7c6e442a5a4280444bcbc8, type: 3}
    - {fileID: 21300000, guid: 6c72b968f717fa447859dbc5726afebf, type: 3}
    - {fileID: 21300000, guid: abb93186fbf2ead408c7603b2d19021a, type: 3}
  m_AnimationClipSettings:
    serializedVersion: 2
    m_StartTime: 0
    m_StopTime: .583333313
    m_OrientationOffsetY: 0
    m_Level: 0
    m_CycleOffset: 0
    m_LoopTime: 1
    m_LoopBlend: 0
    m_LoopBlendOrientation: 0
    m_LoopBlendPositionY: 0
    m_LoopBlendPositionXZ: 0
    m_KeepOriginalOrientation: 0
    m_KeepOriginalPositionY: 1
    m_KeepOriginalPositionXZ: 0
    m_HeightFromFeet: 0
    m_Mirror: 0
  m_EditorCurves: []
  m_EulerEditorCurves: []
  m_Events: []
