%YAML 1.1
%TAG !u! tag:unity3d.com,2011:
--- !u!1 &100000
GameObject:
  m_ObjectHideFlags: 0
  m_PrefabParentObject: {fileID: 0}
  m_PrefabInternal: {fileID: 100100000}
  serializedVersion: 4
  m_Component:
  - 4: {fileID: 400000}
  - 114: {fileID: 11400000}
  m_Layer: 0
  m_Name: P1UI
  m_TagString: Untagged
  m_Icon: {fileID: 0}
  m_NavMeshLayer: 0
  m_StaticEditorFlags: 0
  m_IsActive: 1
--- !u!4 &400000
Transform:
  m_ObjectHideFlags: 1
  m_PrefabParentObject: {fileID: 0}
  m_PrefabInternal: {fileID: 100100000}
  m_GameObject: {fileID: 100000}
  m_LocalRotation: {x: 0, y: 0, z: 0, w: 1}
  m_LocalPosition: {x: 0, y: 0, z: 0}
  m_LocalScale: {x: 1, y: 1, z: 1}
  m_Children: []
  m_Father: {fileID: 0}
  m_RootOrder: 0
--- !u!114 &11400000
MonoBehaviour:
  m_ObjectHideFlags: 1
  m_PrefabParentObject: {fileID: 0}
  m_PrefabInternal: {fileID: 100100000}
  m_GameObject: {fileID: 100000}
  m_Enabled: 1
  m_EditorHideFlags: 0
  m_Script: {fileID: 11500000, guid: 4d0c51bb0b6e93049af5e88f93826e3b, type: 3}
  m_Name: 
  m_EditorClassIdentifier: 
  material: {fileID: 2100000, guid: 50d5c1d840c320d4182af77e98517543, type: 2}
  mSprites:
  - name: 01-1
    x: 1277
    y: 526
    width: 300
    height: 99
    borderLeft: 0
    borderRight: 0
    borderTop: 0
    borderBottom: 0
    paddingLeft: 0
    paddingRight: 0
    paddingTop: 0
    paddingBottom: 1
  - name: 01-2
    x: 1578
    y: 526
    width: 300
    height: 99
    borderLeft: 0
    borderRight: 0
    borderTop: 0
    borderBottom: 0
    paddingLeft: 0
    paddingRight: 0
    paddingTop: 0
    paddingBottom: 1
  - name: 02-1
    x: 1972
    y: 561
    width: 64
    height: 64
    borderLeft: 0
    borderRight: 0
    borderTop: 0
    borderBottom: 0
    paddingLeft: 0
    paddingRight: 0
    paddingTop: 0
    paddingBottom: 0
  - name: 02-2
    x: 1787
    y: 47
    width: 64
    height: 64
    borderLeft: 0
    borderRight: 0
    borderTop: 0
    borderBottom: 0
    paddingLeft: 0
    paddingRight: 0
    paddingTop: 0
    paddingBottom: 0
  - name: 03-1
    x: 1787
    y: 112
    width: 64
    height: 64
    borderLeft: 0
    borderRight: 0
    borderTop: 0
    borderBottom: 0
    paddingLeft: 0
    paddingRight: 0
    paddingTop: 0
    paddingBottom: 0
  - name: 03-2
    x: 1706
    y: 29
    width: 64
    height: 64
    borderLeft: 0
    borderRight: 0
    borderTop: 0
    borderBottom: 0
    paddingLeft: 0
    paddingRight: 0
    paddingTop: 0
    paddingBottom: 0
  - name: 04
    x: 507
    y: 222
    width: 256
    height: 256
    borderLeft: 87
    borderRight: 87
    borderTop: 87
    borderBottom: 87
    paddingLeft: 0
    paddingRight: 0
    paddingTop: 0
    paddingBottom: 0
  - name: 05
    x: 1020
    y: 768
    width: 256
    height: 256
    borderLeft: 0
    borderRight: 0
    borderTop: 0
    borderBottom: 0
    paddingLeft: 0
    paddingRight: 0
    paddingTop: 0
    paddingBottom: 0
  - name: 06
    x: 507
    y: 93
    width: 256
    height: 128
    borderLeft: 30
    borderRight: 30
    borderTop: 30
    borderBottom: 30
    paddingLeft: 0
    paddingRight: 0
    paddingTop: 0
    paddingBottom: 0
  - name: 07
    x: 636
    y: 10
    width: 81
    height: 82
    borderLeft: 0
    borderRight: 0
    borderTop: 0
    borderBottom: 0
    paddingLeft: 0
    paddingRight: 0
    paddingTop: 0
    paddingBottom: 0
  - name: 08-1
    x: 1917
    y: 49
    width: 61
    height: 62
    borderLeft: 0
    borderRight: 0
    borderTop: 0
    borderBottom: 0
    paddingLeft: 1
    paddingRight: 2
    paddingTop: 1
    paddingBottom: 1
  - name: 09-1
    x: 1406
    y: 3
    width: 128
    height: 64
    borderLeft: 20
    borderRight: 20
    borderTop: 20
    borderBottom: 20
    paddingLeft: 0
    paddingRight: 0
    paddingTop: 0
    paddingBottom: 0
  - name: 09-2
    x: 1892
    y: 332
    width: 128
    height: 64
    borderLeft: 10
    borderRight: 10
    borderTop: 10
    borderBottom: 10
    paddingLeft: 0
    paddingRight: 0
    paddingTop: 0
    paddingBottom: 0
  - name: 10
    x: 1277
    y: 68
    width: 128
    height: 128
    borderLeft: 22
    borderRight: 22
    borderTop: 22
    borderBottom: 22
    paddingLeft: 0
    paddingRight: 0
    paddingTop: 0
    paddingBottom: 0
  - name: 12-1
    x: 925
    y: 69
    width: 92
    height: 92
    borderLeft: 0
    borderRight: 0
    borderTop: 0
    borderBottom: 0
    paddingLeft: 0
    paddingRight: 0
    paddingTop: 0
    paddingBottom: 0
  - name: 12-2
    x: 1879
    y: 533
    width: 92
    height: 92
    borderLeft: 0
    borderRight: 0
    borderTop: 0
    borderBottom: 0
    paddingLeft: 0
    paddingRight: 0
    paddingTop: 0
    paddingBottom: 0
  - name: 13-1
    x: 1578
    y: 55
    width: 92
    height: 92
    borderLeft: 0
    borderRight: 0
    borderTop: 0
    borderBottom: 0
    paddingLeft: 0
    paddingRight: 0
    paddingTop: 0
    paddingBottom: 0
  - name: 13-2
    x: 925
    y: 162
    width: 92
    height: 92
    borderLeft: 0
    borderRight: 0
    borderTop: 0
    borderBottom: 0
    paddingLeft: 0
    paddingRight: 0
    paddingTop: 0
    paddingBottom: 0
  - name: 14-1
    x: 1706
    y: 304
    width: 92
    height: 92
    borderLeft: 0
    borderRight: 0
    borderTop: 0
    borderBottom: 0
    paddingLeft: 0
    paddingRight: 0
    paddingTop: 0
    paddingBottom: 0
  - name: 14-2
    x: 1799
    y: 304
    width: 92
    height: 92
    borderLeft: 0
    borderRight: 0
    borderTop: 0
    borderBottom: 0
    paddingLeft: 0
    paddingRight: 0
    paddingTop: 0
    paddingBottom: 0
  - name: 16-1
    x: 1917
    y: 112
    width: 64
    height: 64
    borderLeft: 0
    borderRight: 0
    borderTop: 0
    borderBottom: 0
    paddingLeft: 0
    paddingRight: 0
    paddingTop: 0
    paddingBottom: 0
  - name: 16-2
    x: 1852
    y: 47
    width: 64
    height: 64
    borderLeft: 0
    borderRight: 0
    borderTop: 0
    borderBottom: 0
    paddingLeft: 0
    paddingRight: 0
    paddingTop: 0
    paddingBottom: 0
  - name: 17-1
    x: 1277
    y: 326
    width: 300
    height: 99
    borderLeft: 0
    borderRight: 0
    borderTop: 0
    borderBottom: 0
    paddingLeft: 0
    paddingRight: 0
    paddingTop: 0
    paddingBottom: 1
  - name: 17-2
    x: 1277
    y: 426
    width: 300
    height: 99
    borderLeft: 0
    borderRight: 0
    borderTop: 0
    borderBottom: 0
    paddingLeft: 0
    paddingRight: 0
    paddingTop: 0
    paddingBottom: 1
  - name: 20-1
    x: 507
    y: 479
    width: 256
    height: 256
    borderLeft: 0
    borderRight: 0
    borderTop: 0
    borderBottom: 0
    paddingLeft: 0
    paddingRight: 0
    paddingTop: 0
    paddingBottom: 0
  - name: 20-2
    x: 1020
    y: 511
    width: 256
    height: 256
    borderLeft: 0
    borderRight: 0
    borderTop: 0
    borderBottom: 0
    paddingLeft: 0
    paddingRight: 0
    paddingTop: 0
    paddingBottom: 0
  - name: 21
    x: 1020
    y: 254
    width: 256
    height: 256
    borderLeft: 0
    borderRight: 0
    borderTop: 0
    borderBottom: 0
    paddingLeft: 0
    paddingRight: 0
    paddingTop: 0
    paddingBottom: 0
  - name: 22
    x: 257
    y: 43
    width: 128
    height: 128
    borderLeft: 20
    borderRight: 20
    borderTop: 40
    borderBottom: 40
    paddingLeft: 0
    paddingRight: 0
    paddingTop: 0
    paddingBottom: 0
  - name: 24-1
    x: 1836
    y: 397
    width: 128
    height: 128
    borderLeft: 20
    borderRight: 20
    borderTop: 20
    borderBottom: 20
    paddingLeft: 0
    paddingRight: 0
    paddingTop: 0
    paddingBottom: 0
  - name: 24-2
    x: 1707
    y: 397
    width: 128
    height: 128
    borderLeft: 0
    borderRight: 0
    borderTop: 0
    borderBottom: 0
    paddingLeft: 0
    paddingRight: 0
    paddingTop: 0
    paddingBottom: 0
  - name: 25-1
    x: 1020
    y: 125
    width: 128
    height: 128
    borderLeft: 0
    borderRight: 0
    borderTop: 0
    borderBottom: 0
    paddingLeft: 0
    paddingRight: 0
    paddingTop: 0
    paddingBottom: 0
  - name: 25-2
    x: 1406
    y: 197
    width: 128
    height: 128
    borderLeft: 0
    borderRight: 0
    borderTop: 0
    borderBottom: 0
    paddingLeft: 0
    paddingRight: 0
    paddingTop: 0
    paddingBottom: 0
  - name: 26-1
    x: 1277
    y: 197
    width: 128
    height: 128
    borderLeft: 0
    borderRight: 0
    borderTop: 0
    borderBottom: 0
    paddingLeft: 0
    paddingRight: 0
    paddingTop: 0
    paddingBottom: 0
  - name: 26-2
    x: 1406
    y: 68
    width: 128
    height: 128
    borderLeft: 0
    borderRight: 0
    borderTop: 0
    borderBottom: 0
    paddingLeft: 0
    paddingRight: 0
    paddingTop: 0
    paddingBottom: 0
  - name: 27-1
    x: 1874
    y: 177
    width: 59
    height: 61
    borderLeft: 0
    borderRight: 0
    borderTop: 0
    borderBottom: 0
    paddingLeft: 3
    paddingRight: 2
    paddingTop: 1
    paddingBottom: 2
  - name: 27-2
    x: 1982
    y: 112
    width: 64
    height: 64
    borderLeft: 0
    borderRight: 19
    borderTop: 0
    borderBottom: 0
    paddingLeft: 0
    paddingRight: 0
    paddingTop: 0
    paddingBottom: 0
  - name: 28
    x: 1277
    y: 768
    width: 256
    height: 256
    borderLeft: 20
    borderRight: 20
    borderTop: 20
    borderBottom: 20
    paddingLeft: 0
    paddingRight: 0
    paddingTop: 0
    paddingBottom: 0
  - name: 28 (Copy)
    x: 0
    y: 126
    width: 256
    height: 256
    borderLeft: 30
    borderRight: 30
    borderTop: 30
    borderBottom: 30
    paddingLeft: 0
    paddingRight: 0
    paddingTop: 0
    paddingBottom: 0
  - name: 31-1
    x: 1706
    y: 239
    width: 128
    height: 64
    borderLeft: 16
    borderRight: 16
    borderTop: 13
    borderBottom: 13
    paddingLeft: 0
    paddingRight: 0
    paddingTop: 0
    paddingBottom: 0
  - name: 31-2
    x: 1835
    y: 239
    width: 128
    height: 64
    borderLeft: 0
    borderRight: 0
    borderTop: 0
    borderBottom: 0
    paddingLeft: 0
    paddingRight: 0
    paddingTop: 0
    paddingBottom: 0
  - name: 32
    x: 1578
    y: 397
    width: 128
    height: 128
    borderLeft: 20
    borderRight: 20
    borderTop: 20
    borderBottom: 20
    paddingLeft: 0
    paddingRight: 0
    paddingTop: 0
    paddingBottom: 0
  - name: 33
    x: 1277
    y: 626
    width: 428
    height: 141
    borderLeft: 0
    borderRight: 0
    borderTop: 0
    borderBottom: 0
    paddingLeft: 0
    paddingRight: 20
    paddingTop: 0
    paddingBottom: 0
  - name: 34-1
    x: 507
    y: 28
    width: 128
    height: 64
    borderLeft: 0
    borderRight: 0
    borderTop: 0
    borderBottom: 0
    paddingLeft: 0
    paddingRight: 0
    paddingTop: 0
    paddingBottom: 0
  - name: 34-2
    x: 1277
    y: 3
    width: 128
    height: 64
    borderLeft: 0
    borderRight: 0
    borderTop: 0
    borderBottom: 0
    paddingLeft: 0
    paddingRight: 0
    paddingTop: 0
    paddingBottom: 0
  - name: 35
    x: 1791
    y: 768
    width: 256
    height: 256
    borderLeft: 0
    borderRight: 0
    borderTop: 0
    borderBottom: 0
    paddingLeft: 0
    paddingRight: 0
    paddingTop: 0
    paddingBottom: 0
  - name: 35-1
    x: 1787
    y: 177
    width: 86
    height: 61
    borderLeft: 0
    borderRight: 0
    borderTop: 0
    borderBottom: 0
    paddingLeft: 0
    paddingRight: 4
    paddingTop: 0
    paddingBottom: 0
  - name: 35-2
    x: 925
    y: 7
    width: 86
    height: 61
    borderLeft: 0
    borderRight: 0
    borderTop: 0
    borderBottom: 0
    paddingLeft: 4
    paddingRight: 0
    paddingTop: 0
    paddingBottom: 0
  - name: 36
    x: 0
    y: 35
    width: 256
    height: 90
    borderLeft: 0
    borderRight: 0
    borderTop: 0
    borderBottom: 0
    paddingLeft: 0
    paddingRight: 0
    paddingTop: 83
    paddingBottom: 83
  - name: 37
    x: 1578
    y: 269
    width: 127
    height: 127
    borderLeft: 0
    borderRight: 0
    borderTop: 0
    borderBottom: 0
    paddingLeft: 1
    paddingRight: 0
    paddingTop: 1
    paddingBottom: 0
  - name: 37-1
    x: 1149
    y: 126
    width: 127
    height: 127
    borderLeft: 0
    borderRight: 0
    borderTop: 0
    borderBottom: 0
    paddingLeft: 1
    paddingRight: 0
    paddingTop: 1
    paddingBottom: 0
  - name: 37-2
    x: 1020
    y: 1
    width: 125
    height: 123
    borderLeft: 0
    borderRight: 0
    borderTop: 0
    borderBottom: 0
    paddingLeft: 3
    paddingRight: 0
    paddingTop: 5
    paddingBottom: 0
  - name: 37-3
    x: 1149
    y: 13
    width: 118
    height: 112
    borderLeft: 0
    borderRight: 0
    borderTop: 0
    borderBottom: 0
    paddingLeft: 3
    paddingRight: 7
    paddingTop: 14
    paddingBottom: 2
  - name: 40
    x: 1706
    y: 668
    width: 313
    height: 99
    borderLeft: 0
    borderRight: 0
    borderTop: 0
    borderBottom: 0
    paddingLeft: 0
    paddingRight: 0
    paddingTop: 0
    paddingBottom: 0
  - name: 41
    x: 764
    y: 255
    width: 214
    height: 223
    borderLeft: 0
    borderRight: 0
    borderTop: 0
    borderBottom: 0
    paddingLeft: 23
    paddingRight: 19
    paddingTop: 27
    paddingBottom: 6
  - name: 42
    x: 1534
    y: 768
    width: 256
    height: 256
    borderLeft: 0
    borderRight: 0
    borderTop: 0
    borderBottom: 0
    paddingLeft: 0
    paddingRight: 0
    paddingTop: 0
    paddingBottom: 0
  - name: 43-1
    x: 1964
    y: 239
    width: 64
    height: 64
    borderLeft: 0
    borderRight: 0
    borderTop: 0
    borderBottom: 0
    paddingLeft: 0
    paddingRight: 0
    paddingTop: 0
    paddingBottom: 0
  - name: 43-2
    x: 1706
    y: 94
    width: 64
    height: 64
    borderLeft: 0
    borderRight: 0
    borderTop: 0
    borderBottom: 0
    paddingLeft: 0
    paddingRight: 0
    paddingTop: 0
    paddingBottom: 0
  - name: 45
    x: 1578
    y: 148
    width: 99
    height: 120
    borderLeft: 0
    borderRight: 0
    borderTop: 0
    borderBottom: 0
    paddingLeft: 9
    paddingRight: 20
    paddingTop: 6
    paddingBottom: 2
  - name: 46-1
    x: 1965
    y: 446
    width: 80
    height: 79
    borderLeft: 0
    borderRight: 0
    borderTop: 0
    borderBottom: 0
    paddingLeft: 0
    paddingRight: 0
    paddingTop: 0
    paddingBottom: 1
  - name: 46-2
    x: 1706
    y: 159
    width: 80
    height: 79
    borderLeft: 0
    borderRight: 0
    borderTop: 0
    borderBottom: 0
    paddingLeft: 0
    paddingRight: 0
    paddingTop: 0
    paddingBottom: 1
  - name: 46-3
    x: 469
    y: 548
    width: 35
    height: 36
    borderLeft: 0
    borderRight: 0
    borderTop: 0
    borderBottom: 0
    paddingLeft: 0
    paddingRight: 0
    paddingTop: 0
    paddingBottom: 0
  - name: bell
    x: 386
    y: 52
    width: 116
    height: 119
    borderLeft: 0
    borderRight: 0
    borderTop: 0
    borderBottom: 0
    paddingLeft: 8
    paddingRight: 4
    paddingTop: 4
    paddingBottom: 5
  - name: black
    x: 507
    y: 736
    width: 512
    height: 288
    borderLeft: 0
    borderRight: 0
    borderTop: 0
    borderBottom: 0
    paddingLeft: 0
    paddingRight: 0
    paddingTop: 0
    paddingBottom: 0
  - name: fire1
    x: 979
    y: 376
    width: 40
    height: 102
    borderLeft: 0
    borderRight: 0
    borderTop: 0
    borderBottom: 0
    paddingLeft: 7
    paddingRight: 5
    paddingTop: 5
    paddingBottom: 0
  - name: fire2
    x: 1535
    y: 233
    width: 40
    height: 92
    borderLeft: 0
    borderRight: 0
    borderTop: 0
    borderBottom: 0
    paddingLeft: 7
    paddingRight: 5
    paddingTop: 15
    paddingBottom: 0
  - name: fire3
    x: 979
    y: 273
    width: 40
    height: 102
    borderLeft: 0
    borderRight: 0
    borderTop: 0
    borderBottom: 0
    paddingLeft: 7
    paddingRight: 5
    paddingTop: 5
    paddingBottom: 0
  - name: heart
    x: 764
    y: 525
    width: 240
    height: 210
    borderLeft: 0
    borderRight: 0
    borderTop: 0
    borderBottom: 0
    paddingLeft: 8
    paddingRight: 8
    paddingTop: 32
    paddingBottom: 14
  - name: hourglass
    x: 764
    y: 16
    width: 160
    height: 238
    borderLeft: 0
    borderRight: 0
    borderTop: 0
    borderBottom: 0
    paddingLeft: 48
    paddingRight: 48
    paddingTop: 9
    paddingBottom: 9
  - name: LOGO
    x: 0
    y: 383
    width: 468
    height: 201
    borderLeft: 0
    borderRight: 0
    borderTop: 0
    borderBottom: 0
    paddingLeft: 19
    paddingRight: 25
    paddingTop: 162
    paddingBottom: 149
  - name: LOGO_Char
    x: 0
    y: 585
    width: 506
    height: 439
    borderLeft: 0
    borderRight: 0
    borderTop: 0
    borderBottom: 0
    paddingLeft: 6
    paddingRight: 0
    paddingTop: 0
    paddingBottom: 0
  - name: Pic_Condition2Atlas
    x: 257
    y: 172
    width: 240
    height: 210
    borderLeft: 0
    borderRight: 0
    borderTop: 0
    borderBottom: 0
    paddingLeft: 0
    paddingRight: 16
    paddingTop: 46
    paddingBottom: 0
  - name: shine1
    x: 1852
    y: 112
    width: 64
    height: 64
    borderLeft: 0
    borderRight: 0
    borderTop: 0
    borderBottom: 0
    paddingLeft: 0
    paddingRight: 0
    paddingTop: 2
    paddingBottom: 0
  mPixelSize: 1
  mReplacement: {fileID: 0}
  mCoordinates: 0
  sprites: []
--- !u!1001 &100100000
Prefab:
  m_ObjectHideFlags: 1
  serializedVersion: 2
  m_Modification:
    m_TransformParent: {fileID: 0}
    m_Modifications: []
    m_RemovedComponents: []
  m_ParentPrefab: {fileID: 0}
  m_RootGameObject: {fileID: 100000}
  m_IsPrefabParent: 1
  m_IsExploded: 1
