%YAML 1.1
%TAG !u! tag:unity3d.com,2011:
--- !u!74 &7400000
AnimationClip:
  m_ObjectHideFlags: 0
  m_PrefabParentObject: {fileID: 0}
  m_PrefabInternal: {fileID: 0}
  m_Name: bob_appear
  serializedVersion: 4
  m_AnimationType: 2
  m_Compressed: 0
  m_UseHighQualityCurve: 1
  m_RotationCurves: []
  m_CompressedRotationCurves: []
  m_PositionCurves: []
  m_ScaleCurves: []
  m_FloatCurves: []
  m_PPtrCurves:
  - curve:
    - time: 0
      value: {fileID: 21300000, guid: 3ceb8821e9bea4b4cb39ce06f0215668, type: 3}
    - time: .0833333358
      value: {fileID: 21300000, guid: 38e327044c7898b4999cacbcd117f9ad, type: 3}
    - time: .166666672
      value: {fileID: 21300000, guid: fa551f22b198bda40809ecf0afddb22f, type: 3}
    - time: .25
      value: {fileID: 21300000, guid: e469c9a13f7a9c14ab4ff4496c5cc8f9, type: 3}
    - time: .333333343
      value: {fileID: 21300000, guid: e5fd85154426e404fa3863bccdd04b1c, type: 3}
    - time: .416666657
      value: {fileID: 21300000, guid: 1056cb8878e15414eab5a06c4112952e, type: 3}
    - time: .5
      value: {fileID: 21300000, guid: e5cf70d1b87b1a749a468aa00e51aefa, type: 3}
    attribute: m_Sprite
    path: 
    classID: 212
    script: {fileID: 0}
  m_SampleRate: 12
  m_WrapMode: 0
  m_Bounds:
    m_Center: {x: 0, y: 0, z: 0}
    m_Extent: {x: 0, y: 0, z: 0}
  m_ClipBindingConstant:
    genericBindings:
    - path: 0
      attribute: 0
      script: {fileID: 0}
      classID: 212
      customType: 23
      isPPtrCurve: 1
    pptrCurveMapping:
    - {fileID: 21300000, guid: 3ceb8821e9bea4b4cb39ce06f0215668, type: 3}
    - {fileID: 21300000, guid: 38e327044c7898b4999cacbcd117f9ad, type: 3}
    - {fileID: 21300000, guid: fa551f22b198bda40809ecf0afddb22f, type: 3}
    - {fileID: 21300000, guid: e469c9a13f7a9c14ab4ff4496c5cc8f9, type: 3}
    - {fileID: 21300000, guid: e5fd85154426e404fa3863bccdd04b1c, type: 3}
    - {fileID: 21300000, guid: 1056cb8878e15414eab5a06c4112952e, type: 3}
    - {fileID: 21300000, guid: e5cf70d1b87b1a749a468aa00e51aefa, type: 3}
  m_AnimationClipSettings:
    serializedVersion: 2
    m_StartTime: 0
    m_StopTime: .583333313
    m_OrientationOffsetY: 0
    m_Level: 0
    m_CycleOffset: 0
    m_LoopTime: 0
    m_LoopBlend: 0
    m_LoopBlendOrientation: 0
    m_LoopBlendPositionY: 0
    m_LoopBlendPositionXZ: 0
    m_KeepOriginalOrientation: 0
    m_KeepOriginalPositionY: 1
    m_KeepOriginalPositionXZ: 0
    m_HeightFromFeet: 0
    m_Mirror: 0
  m_EditorCurves: []
  m_EulerEditorCurves: []
  m_Events: []
