%YAML 1.1
%TAG !u! tag:unity3d.com,2011:
--- !u!74 &7400000
AnimationClip:
  m_ObjectHideFlags: 0
  m_PrefabParentObject: {fileID: 0}
  m_PrefabInternal: {fileID: 0}
  m_Name: treasure_appear
  serializedVersion: 4
  m_AnimationType: 2
  m_Compressed: 0
  m_UseHighQualityCurve: 1
  m_RotationCurves: []
  m_CompressedRotationCurves: []
  m_PositionCurves: []
  m_ScaleCurves: []
  m_FloatCurves: []
  m_PPtrCurves:
  - curve:
    - time: 0
      value: {fileID: 21300000, guid: 855724d6e5f6ede48aa3e6fddda39412, type: 3}
    - time: .0833333358
      value: {fileID: 21300000, guid: 96892e537596ef9428ebe02c55830edf, type: 3}
    - time: .166666672
      value: {fileID: 21300000, guid: af9417c6536d34a4cacaa6bf134491a4, type: 3}
    - time: .25
      value: {fileID: 21300000, guid: e3cc302fa3d79d349a3408f7e15bafca, type: 3}
    - time: .333333343
      value: {fileID: 21300000, guid: 3ce340af46906244ba2a8054a02fd32b, type: 3}
    - time: .416666657
      value: {fileID: 21300000, guid: 85d39513ada3cff4b80d5b0fea0266c8, type: 3}
    - time: .5
      value: {fileID: 21300000, guid: 9ae579ef911128b41bb5f1bf3022139f, type: 3}
    attribute: m_Sprite
    path: 
    classID: 212
    script: {fileID: 0}
  m_SampleRate: 12
  m_WrapMode: 0
  m_Bounds:
    m_Center: {x: 0, y: 0, z: 0}
    m_Extent: {x: 0, y: 0, z: 0}
  m_ClipBindingConstant:
    genericBindings:
    - path: 0
      attribute: 0
      script: {fileID: 0}
      classID: 212
      customType: 23
      isPPtrCurve: 1
    pptrCurveMapping:
    - {fileID: 21300000, guid: 855724d6e5f6ede48aa3e6fddda39412, type: 3}
    - {fileID: 21300000, guid: 96892e537596ef9428ebe02c55830edf, type: 3}
    - {fileID: 21300000, guid: af9417c6536d34a4cacaa6bf134491a4, type: 3}
    - {fileID: 21300000, guid: e3cc302fa3d79d349a3408f7e15bafca, type: 3}
    - {fileID: 21300000, guid: 3ce340af46906244ba2a8054a02fd32b, type: 3}
    - {fileID: 21300000, guid: 85d39513ada3cff4b80d5b0fea0266c8, type: 3}
    - {fileID: 21300000, guid: 9ae579ef911128b41bb5f1bf3022139f, type: 3}
  m_AnimationClipSettings:
    serializedVersion: 2
    m_StartTime: 0
    m_StopTime: .583333313
    m_OrientationOffsetY: 0
    m_Level: 0
    m_CycleOffset: 0
    m_LoopTime: 0
    m_LoopBlend: 0
    m_LoopBlendOrientation: 0
    m_LoopBlendPositionY: 0
    m_LoopBlendPositionXZ: 0
    m_KeepOriginalOrientation: 0
    m_KeepOriginalPositionY: 1
    m_KeepOriginalPositionXZ: 0
    m_HeightFromFeet: 0
    m_Mirror: 0
  m_EditorCurves: []
  m_EulerEditorCurves: []
  m_Events: []
