%YAML 1.1
%TAG !u! tag:unity3d.com,2011:
--- !u!74 &7400000
AnimationClip:
  m_ObjectHideFlags: 0
  m_PrefabParentObject: {fileID: 0}
  m_PrefabInternal: {fileID: 0}
  m_Name: web_appear
  serializedVersion: 4
  m_AnimationType: 2
  m_Compressed: 0
  m_UseHighQualityCurve: 1
  m_RotationCurves: []
  m_CompressedRotationCurves: []
  m_PositionCurves: []
  m_ScaleCurves: []
  m_FloatCurves: []
  m_PPtrCurves:
  - curve:
    - time: 0
      value: {fileID: 21300000, guid: 463527233f05c954296bbe7511370a5c, type: 3}
    - time: .0833333358
      value: {fileID: 21300000, guid: 346802554831bce4cb5336cd0c34a4ff, type: 3}
    - time: .166666672
      value: {fileID: 21300000, guid: 416a904f7d1720d40a6918b6b240a95b, type: 3}
    - time: .25
      value: {fileID: 21300000, guid: 5eaf5f112a069fe408e762f0d016f5ce, type: 3}
    - time: .333333343
      value: {fileID: 21300000, guid: 5cbe5cdc065eb2e498f364d0a637023b, type: 3}
    - time: .416666657
      value: {fileID: 21300000, guid: f6a0fe9d587f0874188dc0cd5cd090d3, type: 3}
    - time: .5
      value: {fileID: 21300000, guid: 72a297d8f1f012249a73b62ffd1dd3f8, type: 3}
    - time: .583333313
      value: {fileID: 21300000, guid: 0f05932ebdb24fc488b5dc2beb438c0b, type: 3}
    - time: .666666687
      value: {fileID: 21300000, guid: 0503a8de236e99746bc22f64cb3367eb, type: 3}
    - time: .75
      value: {fileID: 21300000, guid: 2bb017eb06921e24fb3492e8e47c5a52, type: 3}
    attribute: m_Sprite
    path: 
    classID: 212
    script: {fileID: 0}
  m_SampleRate: 12
  m_WrapMode: 0
  m_Bounds:
    m_Center: {x: 0, y: 0, z: 0}
    m_Extent: {x: 0, y: 0, z: 0}
  m_ClipBindingConstant:
    genericBindings:
    - path: 0
      attribute: 0
      script: {fileID: 0}
      classID: 212
      customType: 23
      isPPtrCurve: 1
    pptrCurveMapping:
    - {fileID: 21300000, guid: 463527233f05c954296bbe7511370a5c, type: 3}
    - {fileID: 21300000, guid: 346802554831bce4cb5336cd0c34a4ff, type: 3}
    - {fileID: 21300000, guid: 416a904f7d1720d40a6918b6b240a95b, type: 3}
    - {fileID: 21300000, guid: 5eaf5f112a069fe408e762f0d016f5ce, type: 3}
    - {fileID: 21300000, guid: 5cbe5cdc065eb2e498f364d0a637023b, type: 3}
    - {fileID: 21300000, guid: f6a0fe9d587f0874188dc0cd5cd090d3, type: 3}
    - {fileID: 21300000, guid: 72a297d8f1f012249a73b62ffd1dd3f8, type: 3}
    - {fileID: 21300000, guid: 0f05932ebdb24fc488b5dc2beb438c0b, type: 3}
    - {fileID: 21300000, guid: 0503a8de236e99746bc22f64cb3367eb, type: 3}
    - {fileID: 21300000, guid: 2bb017eb06921e24fb3492e8e47c5a52, type: 3}
  m_AnimationClipSettings:
    serializedVersion: 2
    m_StartTime: 0
    m_StopTime: .833333313
    m_OrientationOffsetY: 0
    m_Level: 0
    m_CycleOffset: 0
    m_LoopTime: 0
    m_LoopBlend: 0
    m_LoopBlendOrientation: 0
    m_LoopBlendPositionY: 0
    m_LoopBlendPositionXZ: 0
    m_KeepOriginalOrientation: 0
    m_KeepOriginalPositionY: 1
    m_KeepOriginalPositionXZ: 0
    m_HeightFromFeet: 0
    m_Mirror: 0
  m_EditorCurves: []
  m_EulerEditorCurves: []
  m_Events: []
