%YAML 1.1
%TAG !u! tag:unity3d.com,2011:
--- !u!74 &7400000
AnimationClip:
  m_ObjectHideFlags: 0
  m_PrefabParentObject: {fileID: 0}
  m_PrefabInternal: {fileID: 0}
  m_Name: pack2
  serializedVersion: 4
  m_AnimationType: 1
  m_Compressed: 0
  m_UseHighQualityCurve: 1
  m_RotationCurves: []
  m_CompressedRotationCurves: []
  m_PositionCurves: []
  m_ScaleCurves:
  - curve:
      serializedVersion: 2
      m_Curve:
      - time: 0
        value: {x: 360, y: 360, z: 360}
        inSlope: {x: 300, y: 300, z: 480}
        outSlope: {x: 300, y: 300, z: 480}
        tangentMode: 1099694080
      - time: .0833333358
        value: {x: 385, y: 385, z: 400}
        inSlope: {x: 56.2499924, y: 56.2499924, z: 89.9999847}
        outSlope: {x: 56.2499924, y: 56.2499924, z: 89.9999847}
        tangentMode: 0
      - time: .216666669
        value: {x: 360, y: 360, z: 360}
        inSlope: {x: -187.500015, y: -187.500015, z: -300.000031}
        outSlope: {x: -187.500015, y: -187.500015, z: -300.000031}
        tangentMode: 1093664768
      m_PreInfinity: 2
      m_PostInfinity: 2
    path: 
  m_FloatCurves: []
  m_PPtrCurves: []
  m_SampleRate: 60
  m_WrapMode: 0
  m_Bounds:
    m_Center: {x: 0, y: 0, z: 0}
    m_Extent: {x: 0, y: 0, z: 0}
  m_ClipBindingConstant:
    genericBindings: []
    pptrCurveMapping: []
  m_AnimationClipSettings:
    serializedVersion: 2
    m_StartTime: 0
    m_StopTime: .216666669
    m_OrientationOffsetY: 0
    m_Level: 0
    m_CycleOffset: 0
    m_LoopTime: 0
    m_LoopBlend: 0
    m_LoopBlendOrientation: 0
    m_LoopBlendPositionY: 0
    m_LoopBlendPositionXZ: 0
    m_KeepOriginalOrientation: 0
    m_KeepOriginalPositionY: 1
    m_KeepOriginalPositionXZ: 0
    m_HeightFromFeet: 0
    m_Mirror: 0
  m_EditorCurves:
  - curve:
      serializedVersion: 2
      m_Curve:
      - time: 0
        value: 360
        inSlope: 300
        outSlope: 300
        tangentMode: 10
      - time: .0833333358
        value: 385
        inSlope: 56.2499924
        outSlope: 56.2499924
        tangentMode: 10
      - time: .216666669
        value: 360
        inSlope: -187.500015
        outSlope: -187.500015
        tangentMode: 10
      m_PreInfinity: 2
      m_PostInfinity: 2
    attribute: m_LocalScale.x
    path: 
    classID: 4
    script: {fileID: 0}
  - curve:
      serializedVersion: 2
      m_Curve:
      - time: 0
        value: 360
        inSlope: 300
        outSlope: 300
        tangentMode: 10
      - time: .0833333358
        value: 385
        inSlope: 56.2499924
        outSlope: 56.2499924
        tangentMode: 10
      - time: .216666669
        value: 360
        inSlope: -187.500015
        outSlope: -187.500015
        tangentMode: 10
      m_PreInfinity: 2
      m_PostInfinity: 2
    attribute: m_LocalScale.y
    path: 
    classID: 4
    script: {fileID: 0}
  - curve:
      serializedVersion: 2
      m_Curve:
      - time: 0
        value: 360
        inSlope: 480
        outSlope: 480
        tangentMode: 10
      - time: .0833333358
        value: 400
        inSlope: 89.9999847
        outSlope: 89.9999847
        tangentMode: 10
      - time: .216666669
        value: 360
        inSlope: -300.000031
        outSlope: -300.000031
        tangentMode: 10
      m_PreInfinity: 2
      m_PostInfinity: 2
    attribute: m_LocalScale.z
    path: 
    classID: 4
    script: {fileID: 0}
  m_EulerEditorCurves: []
  m_Events: []
